[gd_scene load_steps=3 format=1]

[ext_resource path="res://assets/tileBlack_13.png" type="Texture" id=1]
[ext_resource path="res://assets/tile_203_e.png" type="Texture" id=2]

[node name="Node2D" type="Node2D"]

[node name="Sprite" type="Sprite" parent="."]

texture = ExtResource( 1 )

[node name="Sprite 2" type="Sprite" parent="."]

texture = ExtResource( 2 )


